…
d_res <- tibble(arm = ifelse(action == 1, "arm_1", "arm_2"), trial = 1:N_trials) %>% left_join(d_exp)
ggplot(d_exp, aes(x = trial, y = reward, color = arm)) +
  geom_line() +
  geom_point(data = d_res, aes(x = trial, y = reward), color = "black", shape = 1)

<img src="{{< blogdown/postref >}}index_files/figure-html/unnamed-chunk-6-1.png" width="672" style="display: block; margin: auto;" />

tibble(Q[1:N_trials,],R,action)

# A tibble: 1,000 × 3
   `Q[1:N_trials, ]`[,1]    [,2] R[,"arm_1"] [,"arm_2"] action
                   <dbl>   <dbl>       <dbl>      <dbl>  <dbl>
 1                 0.5    0.5        -0.0560    -0.0996      2
 2                 0.5    0.320      -0.0791    -0.204       1
 3                 0.326  0.320       0.0768    -0.205       2
 4                 0.326  0.162       0.0839    -0.219       1
 5                 0.254  0.162       0.0968    -0.474       2
 6                 0.254 -0.0283      0.268     -0.369       2
 7                 0.254 -0.131       0.314     -0.344       1
 8                 0.272 -0.131       0.188     -0.103       2
 9                 0.272 -0.122       0.119     -0.0344      1
10                 0.226 -0.122       0.0746    -0.0791      1
# … with 990 more rows
…
