Case study: Mixture modeling of nasalization in Basque - Bruno Nicenboim
…
nas_data

# A tidytable: 699 × 6
   speaker root     etymology nasalance     E     R
     <dbl> <chr>    <chr>         <dbl> <dbl> <dbl>
 1       1 diharu   nasalized     0.102     2    26
 2       1 ihakin   oral          0.136     3    37
 3       1 ihaute   nasalized     0.170     2    41
 4       1 ihintz   nasalized     0.219     2    44
 5       1 ahate    nasalized     0.232     2     8
 6       1 zehe     nasalized     0.144     2    64
 7       1 kahixka  nasalized     0.300     2    46
 8       1 ehe-no   nasalized     0.128     2    28
 9       1 ehe-no   nasalized     0.128     2    28
10       1 halahola oral          0.215     3    36
# ℹ 689 more rows
…
